^C:\USERS\KIENQ\DESKTOP\PROJECT 3 (VER03)\1653072\PROJECT_2\DEBUG\PROJECT_2.EXE.EMBED.MANIFEST.RES|C:\USERS\KIENQ\DESKTOP\PROJECT 3 (VER03)\1653072\PROJECT_2\DEBUG\PROJECT_2.OBJ|C:\USERS\KIENQ\DESKTOP\PROJECT 3 (VER03)\1653072\PROJECT_2\DEBUG\PROJECT_2.RES|C:\USERS\KIENQ\DESKTOP\PROJECT 3 (VER03)\1653072\PROJECT_2\DEBUG\STDAFX.OBJ
C:\PROGRAM FILES (X86)\MICROSOFT SDKS\WINDOWS\V7.0A\LIB\KERNEL32.LIB
C:\PROGRAM FILES (X86)\MICROSOFT SDKS\WINDOWS\V7.0A\LIB\USER32.LIB
C:\PROGRAM FILES (X86)\MICROSOFT SDKS\WINDOWS\V7.0A\LIB\GDI32.LIB
C:\PROGRAM FILES (X86)\MICROSOFT SDKS\WINDOWS\V7.0A\LIB\WINSPOOL.LIB
C:\PROGRAM FILES (X86)\MICROSOFT SDKS\WINDOWS\V7.0A\LIB\COMDLG32.LIB
C:\PROGRAM FILES (X86)\MICROSOFT SDKS\WINDOWS\V7.0A\LIB\ADVAPI32.LIB
C:\PROGRAM FILES (X86)\MICROSOFT SDKS\WINDOWS\V7.0A\LIB\SHELL32.LIB
C:\PROGRAM FILES (X86)\MICROSOFT SDKS\WINDOWS\V7.0A\LIB\OLE32.LIB
C:\PROGRAM FILES (X86)\MICROSOFT SDKS\WINDOWS\V7.0A\LIB\OLEAUT32.LIB
C:\PROGRAM FILES (X86)\MICROSOFT SDKS\WINDOWS\V7.0A\LIB\UUID.LIB
C:\PROGRAM FILES (X86)\MICROSOFT SDKS\WINDOWS\V7.0A\LIB\ODBC32.LIB
C:\PROGRAM FILES (X86)\MICROSOFT SDKS\WINDOWS\V7.0A\LIB\ODBCCP32.LIB
C:\USERS\KIENQ\DESKTOP\PROJECT 3 (VER03)\1653072\PROJECT_2\DEBUG\PROJECT_2.RES
C:\USERS\KIENQ\DESKTOP\PROJECT 3 (VER03)\1653072\PROJECT_2\DEBUG\PROJECT_2.EXE.EMBED.MANIFEST.RES
C:\USERS\KIENQ\DESKTOP\PROJECT 3 (VER03)\1653072\PROJECT_2\DEBUG\PROJECT_2.OBJ
C:\USERS\KIENQ\DESKTOP\PROJECT 3 (VER03)\1653072\PROJECT_2\DEBUG\STDAFX.OBJ
C:\WINDOWS\SYSTEM32\TZRES.DLL
C:\USERS\KIENQ\DESKTOP\PROJECT 3 (VER03)\1653072\DEBUG\PROJECT_2.ILK
C:\USERS\KIENQ\DESKTOP\PROJECT 3 (VER03)\1653072\DEBUG\PROJECT_2.EXE
C:\USERS\KIENQ\DESKTOP\PROJECT 3 (VER03)\1653072\DEBUG\PROJECT_2.PDB
C:\WINDOWS\GLOBALIZATION\SORTING\SORTDEFAULT.NLS
C:\PROGRAM FILES (X86)\MICROSOFT VISUAL STUDIO 10.0\VC\LIB\MSVCPRTD.LIB
C:\PROGRAM FILES (X86)\MICROSOFT SDKS\WINDOWS\V7.0A\LIB\COMCTL32.LIB
C:\PROGRAM FILES (X86)\MICROSOFT VISUAL STUDIO 10.0\VC\LIB\MSVCRTD.LIB
C:\PROGRAM FILES (X86)\MICROSOFT VISUAL STUDIO 10.0\VC\LIB\OLDNAMES.LIB
