^D:\KIEN QUOC\C.HCMUS\NAM 2\HK3\LAP TRINH WINDOWS\BAI TAP\PROJECT 1\16CLC1_1653072\PROJECT_1\STDAFX.CPP
/c /Zi /nologo /W3 /WX- /O2 /Oi /Oy- /GL /D WIN32 /D NDEBUG /D _WINDOWS /D _UNICODE /D UNICODE /Gm- /EHsc /MD /GS /Gy /fp:precise /Zc:wchar_t /Zc:forScope /Yc"StdAfx.h" /Fp"Release\Project_1.pch" /Fo"Release\\" /Fd"Release\vc100.pdb" /Gd /TP /analyze- /errorReport:prompt D:\KIEN QUOC\C.HCMUS\NAM 2\HK3\LAP TRINH WINDOWS\BAI TAP\PROJECT 1\16CLC1_1653072\PROJECT_1\STDAFX.CPP
^D:\KIEN QUOC\C.HCMUS\NAM 2\HK3\LAP TRINH WINDOWS\BAI TAP\PROJECT 1\16CLC1_1653072\PROJECT_1\PROJECT_1.CPP
/c /Zi /nologo /W3 /WX- /O2 /Oi /Oy- /GL /D WIN32 /D NDEBUG /D _WINDOWS /D _UNICODE /D UNICODE /Gm- /EHsc /MD /GS /Gy /fp:precise /Zc:wchar_t /Zc:forScope /Yu"StdAfx.h" /Fp"Release\Project_1.pch" /Fo"Release\\" /Fd"Release\vc100.pdb" /Gd /TP /analyze- /errorReport:prompt D:\KIEN QUOC\C.HCMUS\NAM 2\HK3\LAP TRINH WINDOWS\BAI TAP\PROJECT 1\16CLC1_1653072\PROJECT_1\PROJECT_1.CPP
