^D:\KIEN QUOC\C.HCMUS\NAM 2\HK3\LAP TRINH WINDOWS\BAI TAP\PROJECT 1\16CLC1_1653072\PROJECT_1\PROJECT_1.RC
D:\KIEN QUOC\C.HCMUS\NAM 2\HK3\LAP TRINH WINDOWS\BAI TAP\PROJECT 1\16CLC1_1653072\PROJECT_1\RESOURCE.H
D:\KIEN QUOC\C.HCMUS\NAM 2\HK3\LAP TRINH WINDOWS\BAI TAP\PROJECT 1\16CLC1_1653072\PROJECT_1\TARGETVER.H
C:\PROGRAM FILES (X86)\MICROSOFT SDKS\WINDOWS\V7.0A\INCLUDE\SDKDDKVER.H
C:\PROGRAM FILES (X86)\MICROSOFT SDKS\WINDOWS\V7.0A\INCLUDE\WINDOWS.H
C:\PROGRAM FILES (X86)\MICROSOFT SDKS\WINDOWS\V7.0A\INCLUDE\WINRESRC.H
C:\PROGRAM FILES (X86)\MICROSOFT SDKS\WINDOWS\V7.0A\INCLUDE\WINUSER.RH
C:\PROGRAM FILES (X86)\MICROSOFT SDKS\WINDOWS\V7.0A\INCLUDE\COMMCTRL.RH
C:\PROGRAM FILES (X86)\MICROSOFT SDKS\WINDOWS\V7.0A\INCLUDE\DDE.RH
C:\PROGRAM FILES (X86)\MICROSOFT SDKS\WINDOWS\V7.0A\INCLUDE\WINNT.RH
C:\PROGRAM FILES (X86)\MICROSOFT SDKS\WINDOWS\V7.0A\INCLUDE\DLGS.H
C:\PROGRAM FILES (X86)\MICROSOFT SDKS\WINDOWS\V7.0A\INCLUDE\WINVER.H
C:\PROGRAM FILES (X86)\MICROSOFT SDKS\WINDOWS\V7.0A\INCLUDE\SPECSTRINGS.H
C:\PROGRAM FILES (X86)\MICROSOFT SDKS\WINDOWS\V7.0A\INCLUDE\SAL_SUPP.H
C:\PROGRAM FILES (X86)\MICROSOFT SDKS\WINDOWS\V7.0A\INCLUDE\SPECSTRINGS_SUPP.H
C:\PROGRAM FILES (X86)\MICROSOFT VISUAL STUDIO 10.0\VC\INCLUDE\SAL.H
C:\PROGRAM FILES (X86)\MICROSOFT SDKS\WINDOWS\V7.0A\INCLUDE\DRIVERSPECS.H
C:\PROGRAM FILES (X86)\MICROSOFT SDKS\WINDOWS\V7.0A\INCLUDE\SDV_DRIVERSPECS.H
C:\PROGRAM FILES (X86)\MICROSOFT SDKS\WINDOWS\V7.0A\INCLUDE\VERRSRC.H
D:\KIEN QUOC\C.HCMUS\NAM 2\HK3\LAP TRINH WINDOWS\BAI TAP\PROJECT 1\16CLC1_1653072\PROJECT_1\PROJECT_1.ICO
D:\KIEN QUOC\C.HCMUS\NAM 2\HK3\LAP TRINH WINDOWS\BAI TAP\PROJECT 1\16CLC1_1653072\PROJECT_1\SMALL.ICO
