^D:\KIEN QUOC\C.HCMUS\NAM 2\HK3\LAP TRINH WINDOWS\BAI TAP\PROJECT 2\1653072\PROJECT_2\STDAFX.CPP
D:\KIEN QUOC\C.HCMUS\NAM 2\HK3\LAP TRINH WINDOWS\BAI TAP\PROJECT 2\1653072\PROJECT_2\RELEASE\PROJECT_2.PCH
D:\KIEN QUOC\C.HCMUS\NAM 2\HK3\LAP TRINH WINDOWS\BAI TAP\PROJECT 2\1653072\PROJECT_2\RELEASE\STDAFX.OBJ
D:\KIEN QUOC\C.HCMUS\NAM 2\HK3\LAP TRINH WINDOWS\BAI TAP\PROJECT 2\1653072\PROJECT_2\RELEASE\VC100.PDB
^D:\KIEN QUOC\C.HCMUS\NAM 2\HK3\LAP TRINH WINDOWS\BAI TAP\PROJECT 2\1653072\PROJECT_2\PROJECT_2.CPP
D:\KIEN QUOC\C.HCMUS\NAM 2\HK3\LAP TRINH WINDOWS\BAI TAP\PROJECT 2\1653072\PROJECT_2\RELEASE\PROJECT_2.OBJ
D:\KIEN QUOC\C.HCMUS\NAM 2\HK3\LAP TRINH WINDOWS\BAI TAP\PROJECT 2\1653072\PROJECT_2\RELEASE\VC100.PDB
