^D:\KIEN QUOC\C.HCMUS\NAM 2\HK3\LAP TRINH WINDOWS\BAI TAP\PROJECT 2\1653072\PROJECT_2\RELEASE\PROJECT_2.OBJ|D:\KIEN QUOC\C.HCMUS\NAM 2\HK3\LAP TRINH WINDOWS\BAI TAP\PROJECT 2\1653072\PROJECT_2\RELEASE\PROJECT_2.RES|D:\KIEN QUOC\C.HCMUS\NAM 2\HK3\LAP TRINH WINDOWS\BAI TAP\PROJECT 2\1653072\PROJECT_2\RELEASE\STDAFX.OBJ
C:\PROGRAM FILES (X86)\MICROSOFT SDKS\WINDOWS\V7.0A\LIB\KERNEL32.LIB
C:\PROGRAM FILES (X86)\MICROSOFT SDKS\WINDOWS\V7.0A\LIB\USER32.LIB
C:\PROGRAM FILES (X86)\MICROSOFT SDKS\WINDOWS\V7.0A\LIB\GDI32.LIB
C:\PROGRAM FILES (X86)\MICROSOFT SDKS\WINDOWS\V7.0A\LIB\WINSPOOL.LIB
C:\PROGRAM FILES (X86)\MICROSOFT SDKS\WINDOWS\V7.0A\LIB\COMDLG32.LIB
C:\PROGRAM FILES (X86)\MICROSOFT SDKS\WINDOWS\V7.0A\LIB\ADVAPI32.LIB
C:\PROGRAM FILES (X86)\MICROSOFT SDKS\WINDOWS\V7.0A\LIB\SHELL32.LIB
C:\PROGRAM FILES (X86)\MICROSOFT SDKS\WINDOWS\V7.0A\LIB\OLE32.LIB
C:\PROGRAM FILES (X86)\MICROSOFT SDKS\WINDOWS\V7.0A\LIB\OLEAUT32.LIB
C:\PROGRAM FILES (X86)\MICROSOFT SDKS\WINDOWS\V7.0A\LIB\UUID.LIB
C:\PROGRAM FILES (X86)\MICROSOFT SDKS\WINDOWS\V7.0A\LIB\ODBC32.LIB
C:\PROGRAM FILES (X86)\MICROSOFT SDKS\WINDOWS\V7.0A\LIB\ODBCCP32.LIB
D:\KIEN QUOC\C.HCMUS\NAM 2\HK3\LAP TRINH WINDOWS\BAI TAP\PROJECT 2\1653072\PROJECT_2\RELEASE\PROJECT_2.RES
D:\KIEN QUOC\C.HCMUS\NAM 2\HK3\LAP TRINH WINDOWS\BAI TAP\PROJECT 2\1653072\PROJECT_2\RELEASE\PROJECT_2.OBJ
D:\KIEN QUOC\C.HCMUS\NAM 2\HK3\LAP TRINH WINDOWS\BAI TAP\PROJECT 2\1653072\PROJECT_2\RELEASE\STDAFX.OBJ
C:\WINDOWS\GLOBALIZATION\SORTING\SORTDEFAULT.NLS
C:\PROGRAM FILES (X86)\MICROSOFT VISUAL STUDIO 10.0\VC\BIN\C2.DLL
C:\PROGRAM FILES (X86)\MICROSOFT VISUAL STUDIO 10.0\VC\LIB\MSVCPRT.LIB
C:\PROGRAM FILES (X86)\MICROSOFT SDKS\WINDOWS\V7.0A\LIB\COMCTL32.LIB
C:\PROGRAM FILES (X86)\MICROSOFT VISUAL STUDIO 10.0\VC\LIB\MSVCRT.LIB
C:\PROGRAM FILES (X86)\MICROSOFT VISUAL STUDIO 10.0\VC\LIB\OLDNAMES.LIB
C:\PROGRAM FILES (X86)\MICROSOFT VISUAL STUDIO 10.0\VC\BIN\1033\LINKUI.DLL
C:\PROGRAM FILES (X86)\MICROSOFT VISUAL STUDIO 10.0\VC\BIN\CVTRES.EXE
C:\WINDOWS\SYSTEM32\TZRES.DLL
